﻿Build started 2/17/2014 10:12:08 AM.
     1>Project "E:\MOURAD__MX\CLIENT SIDE\Client LIB\Client LIB\Client LIB.vcxproj" on node 2 (Build target(s)).
     1>ClCompile:
         C:\Program Files (x86)\Microsoft Visual Studio 12.0\VC\bin\CL.exe /c /ZI /nologo /W3 /WX- /sdl /Od /Oy- /D WIN32 /D _DEBUG /D _LIB /D _UNICODE /D UNICODE /Gm /EHsc /RTC1 /MDd /GS /fp:precise /Zc:wchar_t /Zc:forScope /Fo"Debug\\" /Fd"Debug\vc120.pdb" /Gd /TP /analyze- /errorReport:prompt Client.cpp
         Client.cpp
       Lib:
         C:\Program Files (x86)\Microsoft Visual Studio 12.0\VC\bin\Lib.exe /OUT:"E:\MOURAD__MX\CLIENT SIDE\Client LIB\Debug\Client LIB.lib" /NOLOGO Debug\Client.obj
         Client LIB.vcxproj -> E:\MOURAD__MX\CLIENT SIDE\Client LIB\Debug\Client LIB.lib
     1>Done Building Project "E:\MOURAD__MX\CLIENT SIDE\Client LIB\Client LIB\Client LIB.vcxproj" (Build target(s)).

Build succeeded.

Time Elapsed 00:00:00.89
